4 Panel Data in R – Longitudinal Data Analysis with R
…
# Pivot back to long, splitting "wage_2016" into variable="wage", year="2016"
multi_wide |>
  pivot_longer(
    cols      = -id,
    names_to  = c(".value", "year"),
    names_sep = "_(?=\\d{4}$)"           # split on _ before a 4-digit year
  ) |>
  mutate(year = as.integer(year)) |>
  arrange(id, year)

# A tibble: 24 × 4
      id  year  wage education
   <dbl> <int> <dbl>     <dbl>
 1     1  2016  5.88        10
 2     1  2017  8.1         10
 3     1  2018  7.67        11
 4     1  2019  6.75        11
 5     1  2020  7.69        11
 6     1  2021 10.2         12
 7     1  2022 NA           12
 8     1  2023  8.30        12
 9     2  2016 17.2         11
10     2  2017 19.0         11
# ℹ 14 more rows
…
